<?xml version="1.0" encoding="UTF-8" standalone="no"?>
<!-- Created with Inkscape (http://www.inkscape.org/) -->

<svg
   xmlns:dc="http://purl.org/dc/elements/1.1/"
   xmlns:cc="http://creativecommons.org/ns#"
   xmlns:rdf="http://www.w3.org/1999/02/22-rdf-syntax-ns#"
   xmlns:svg="http://www.w3.org/2000/svg"
   xmlns="http://www.w3.org/2000/svg"
   xmlns:xlink="http://www.w3.org/1999/xlink"
   xmlns:sodipodi="http://sodipodi.sourceforge.net/DTD/sodipodi-0.dtd"
   xmlns:inkscape="http://www.inkscape.org/namespaces/inkscape"
   width="210mm"
   height="297mm"
   viewBox="0 0 210 297"
   version="1.1"
   id="svg8"
   inkscape:version="0.92.3 (11504fc, 2018-09-15)"
   sodipodi:docname="fill_stroke_demo.svg">
  <defs
     id="defs2">
    <linearGradient
       inkscape:collect="always"
       id="linearGradient841">
      <stop
         style="stop-color:#bbe3bf;stop-opacity:1"
         offset="0"
         id="stop837" />
      <stop
         style="stop-color:#2fa93a;stop-opacity:1"
         offset="1"
         id="stop839" />
    </linearGradient>
    <inkscape:path-effect
       effect="bspline"
       id="path-effect4577"
       is_visible="true"
       weight="33.333333"
       steps="2"
       helper_size="0"
       apply_no_weight="true"
       apply_with_weight="true"
       only_selected="false" />
    <inkscape:path-effect
       effect="bspline"
       id="path-effect4571"
       is_visible="true"
       weight="33.333333"
       steps="2"
       helper_size="0"
       apply_no_weight="true"
       apply_with_weight="true"
       only_selected="false" />
    <radialGradient
       inkscape:collect="always"
       xlink:href="#linearGradient841"
       id="radialGradient843"
       cx="69.1355438232422"
       cy="468.324371337891"
       fx="69.1355438232422"
       fy="468.324371337891"
       r="11.0601196289063"
       gradientTransform="matrix(0.987082408671627,0.16021335303596,-0.152395509662341,0.938916288172819,72.2635959587067,19.9397588105654)"
       gradientUnits="userSpaceOnUse" />
    <clipPath
       clipPathUnits="userSpaceOnUse"
       id="clipPath4580">
      <path
         sodipodi:nodetypes="ccc"
         inkscape:connector-curvature="0"
         id="path4582"
         d="m 58.7375591799952,477.020171494735 c 0.1183285519352,2.459888799248 1.0754981641632,5.939303311436 8.0793164405686,3.29673257058 -2.8318888228101,-0.385162257752 -5.6922785967774,-1.0764618346 -8.0793164405686,-3.29673257058 z"
         style="opacity:1;vector-effect:none;fill:#000000;fill-opacity:1;fill-rule:evenodd;stroke:none;stroke-width:0.5;stroke-linecap:round;stroke-linejoin:miter;stroke-miterlimit:4;stroke-dasharray:none;stroke-dashoffset:0;stroke-opacity:1;marker:none;marker-start:none;marker-mid:none;marker-end:none;paint-order:stroke fill markers" />
    </clipPath>
  </defs>
  <sodipodi:namedview
     id="base"
     pagecolor="#ffffff"
     bordercolor="#666666"
     borderopacity="1.0"
     inkscape:pageopacity="0.0"
     inkscape:pageshadow="2"
     inkscape:zoom="0.359210682761489"
     inkscape:cx="649.753698167168"
     inkscape:cy="-143.169504985039"
     inkscape:document-units="mm"
     inkscape:current-layer="layer1"
     showgrid="false"
     inkscape:snap-global="true"
     showguides="true"
     inkscape:guide-bbox="true"
     inkscape:window-width="1280"
     inkscape:window-height="964"
     inkscape:window-x="0"
     inkscape:window-y="0"
     inkscape:window-maximized="1" />
  <metadata
     id="metadata5">
    <rdf:RDF>
      <cc:Work
         rdf:about="">
        <dc:format>image/svg+xml</dc:format>
        <dc:type
           rdf:resource="http://purl.org/dc/dcmitype/StillImage" />
        <dc:title />
      </cc:Work>
    </rdf:RDF>
  </metadata>
  <g
     inkscape:label="Layer 1"
     inkscape:groupmode="layer"
     id="layer1">
    <path
       style="opacity:1;fill:#729fcf;fill-opacity:1;stroke:#191970;stroke-width:2.42794347;stroke-linecap:round;stroke-linejoin:round;stroke-miterlimit:4;stroke-dasharray:none;stroke-opacity:1;paint-order:normal"
       d="m 27.520994,108.69588 c -0.17695,-2.59373 -0.35414,-5.18719 -0.53161,-7.78039 2.12647,-1.699275 4.2531,-3.309175 6.37925,-4.963355 8.19468,-10.909203 16.39136,-21.82114 24.58665,-32.73131 5.44905,9.79203 10.898129,19.584861 16.346799,29.37769 10.986833,-21.68719 21.973193,-43.37372 32.959407,-65.06018 6.64521,27.09657 13.29034,54.194195 19.93512,81.291695 -33.225174,-0.045 -66.450146,-0.0897 -99.675616,-0.13415 z"
       id="path4569"
       inkscape:connector-curvature="0" />
    <g
       id="g4601"
       transform="translate(-23.434524,-14.363095)"
       style="stroke:#901616;stroke-opacity:1">
      <circle
         r="2.9399648"
         cy="86.561752"
         cx="126.95302"
         id="path4573"
         style="opacity:1;vector-effect:none;fill:none;fill-opacity:1;fill-rule:nonzero;stroke:#901616;stroke-width:0.69800001;stroke-linecap:round;stroke-linejoin:round;stroke-miterlimit:4;stroke-dasharray:none;stroke-dashoffset:0;stroke-opacity:1;marker:none;marker-start:none;marker-mid:none;marker-end:none;paint-order:normal" />
      <path
         inkscape:connector-curvature="0"
         id="path4575"
         d="m 130.00019,86.561754 h 37.44257"
         style="opacity:1;vector-effect:none;fill:none;fill-opacity:1;stroke:#901616;stroke-width:0.69800001;stroke-linecap:round;stroke-linejoin:round;stroke-miterlimit:4;stroke-dasharray:none;stroke-dashoffset:0;stroke-opacity:1;marker:none;marker-start:none;marker-mid:none;marker-end:none;paint-order:normal"
         sodipodi:nodetypes="cc" />
    </g>
    <g
       id="g4607"
       transform="translate(-16.064662,10.772322)"
       style="font-variant-east_asian:normal;opacity:1;vector-effect:none;fill:none;fill-opacity:1;stroke:#901616;stroke-width:0.69800001;stroke-linecap:round;stroke-linejoin:round;stroke-miterlimit:4;stroke-dasharray:none;stroke-dashoffset:0;stroke-opacity:1;marker:none;marker-start:none;marker-mid:none;marker-end:none;paint-order:normal">
      <circle
         style="opacity:1;vector-effect:none;fill:none;fill-opacity:1;fill-rule:nonzero;stroke:#901616;stroke-width:0.69800001;stroke-linecap:round;stroke-linejoin:round;stroke-miterlimit:4;stroke-dasharray:none;stroke-dashoffset:0;stroke-opacity:1;marker:none;marker-start:none;marker-mid:none;marker-end:none;paint-order:normal;font-variant-east_asian:normal"
         id="circle4603"
         cx="139.50658"
         cy="82.937401"
         r="2.9399648" />
      <path
         style="opacity:1;vector-effect:none;fill:none;fill-opacity:1;stroke:#901616;stroke-width:0.69800001;stroke-linecap:round;stroke-linejoin:round;stroke-miterlimit:4;stroke-dasharray:none;stroke-dashoffset:0;stroke-opacity:1;marker:none;marker-start:none;marker-mid:none;marker-end:none;paint-order:normal;font-variant-east_asian:normal"
         d="m 146.75946,76.507399 13.31345,1.82e-4 -13.31345,-1.82e-4 -4.72586,4.670588"
         id="path4605"
         inkscape:connector-curvature="0"
         sodipodi:nodetypes="cccc" />
    </g>
    <text
       xml:space="preserve"
       style="font-style:normal;font-variant:normal;font-weight:normal;font-stretch:normal;font-size:9.48651123px;line-height:1.25;font-family:FreeSans;-inkscape-font-specification:FreeSans;font-variant-ligatures:normal;font-variant-position:normal;font-variant-caps:normal;font-variant-numeric:normal;font-variant-alternates:normal;font-feature-settings:normal;text-indent:0;text-align:start;text-decoration:none;text-decoration-line:none;text-decoration-style:solid;text-decoration-color:#000000;letter-spacing:0px;word-spacing:0px;text-transform:none;writing-mode:lr-tb;direction:ltr;text-orientation:mixed;dominant-baseline:auto;baseline-shift:baseline;text-anchor:start;white-space:normal;shape-padding:0;opacity:1;vector-effect:none;fill:#000000;fill-opacity:1;stroke:none;stroke-width:0.88936043;stroke-linecap:butt;stroke-linejoin:miter;stroke-miterlimit:4;stroke-dasharray:none;stroke-dashoffset:0;stroke-opacity:1"
       x="146.67058"
       y="75.656494"
       id="text4611"><tspan
         sodipodi:role="line"
         id="tspan4609"
         x="146.67058"
         y="75.656494"
         style="font-style:normal;font-variant:normal;font-weight:normal;font-stretch:normal;font-family:FreeSans;-inkscape-font-specification:FreeSans;fill:#000000;stroke-width:0.88936043">Fill</tspan></text>
    <text
       xml:space="preserve"
       style="font-style:normal;font-variant:normal;font-weight:normal;font-stretch:normal;font-size:9.48651123px;line-height:1.25;font-family:FreeSans;-inkscape-font-specification:FreeSans;font-variant-ligatures:normal;font-variant-position:normal;font-variant-caps:normal;font-variant-numeric:normal;font-variant-alternates:normal;font-feature-settings:normal;text-indent:0;text-align:start;text-decoration:none;text-decoration-line:none;text-decoration-style:solid;text-decoration-color:#000000;letter-spacing:0px;word-spacing:0px;text-transform:none;writing-mode:lr-tb;direction:ltr;text-orientation:mixed;dominant-baseline:auto;baseline-shift:baseline;text-anchor:start;white-space:normal;shape-padding:0;opacity:1;vector-effect:none;fill:#000000;fill-opacity:1;stroke:none;stroke-width:0.88936043;stroke-linecap:butt;stroke-linejoin:miter;stroke-miterlimit:4;stroke-dasharray:none;stroke-dashoffset:0;stroke-opacity:1"
       x="146.67058"
       y="90.685471"
       id="text4615"><tspan
         sodipodi:role="line"
         id="tspan4613"
         x="146.67058"
         y="90.685471"
         style="font-style:normal;font-variant:normal;font-weight:normal;font-stretch:normal;font-family:FreeSans;-inkscape-font-specification:FreeSans;fill:#000000;stroke-width:0.88936043">Stroke</tspan></text>
    <circle
       style="opacity:1;vector-effect:none;fill:#ffce53;fill-opacity:1;fill-rule:evenodd;stroke:#ff8b1d;stroke-width:3.4630000591;stroke-linecap:round;stroke-linejoin:round;stroke-miterlimit:4;stroke-dasharray:none;stroke-dashoffset:0;stroke-opacity:1;marker:none;marker-start:none;marker-mid:none;marker-end:none;paint-order:normal"
       id="path6395"
       cx="83.2032775878906"
       cy="258.146087646484"
       r="11.7172613143921" />
    <path
       style="opacity:1;fill:#50883c;fill-opacity:0.5476190305;stroke:#1a642f;stroke-width:3.4630000591;stroke-linecap:round;stroke-linejoin:round;stroke-miterlimit:4;stroke-dasharray:none;stroke-opacity:1;paint-order:normal"
       d="m 16.8075007627889,270.360164639467 c -0.252384399306,-3.69944610349 -0.505111111445,-7.398507105044 -0.758237188557,-11.097197267692 3.032991543332,-2.423681831766 6.06621129522,-4.719887790756 9.098746421442,-7.079250467467 11.688100532955,-15.559834111695 23.379053672854,-31.123567737081 35.068024250928,-46.684781084234 7.771998932125,13.966406383376 15.54403922705,27.933955235831 23.315496163855,41.901501235682 15.670558050198,-30.932514387055 31.3404414588541,-61.864087413819 47.0101166272031,-92.795560599339 9.478086092758,38.64793186046 18.956058081238,77.297368471081 28.433530863504,115.94662679377 -47.38918102195,-0.06418365622 -94.7780739305981,-0.127939421406 -142.1676771383751,-0.19133861072 z"
       id="path4569-3"
       inkscape:connector-curvature="0" />
  </g>
</svg>
