<?xml version="1.0" encoding="UTF-8" standalone="no"?>
<svg xmlns:rdf="http://www.w3.org/1999/02/22-rdf-syntax-ns#" xmlns="http://www.w3.org/2000/svg" version="1.1" xmlns:cc="http://creativecommons.org/ns#" xmlns:xlink="http://www.w3.org/1999/xlink" viewBox="0 0 11.223939 10.880276" xmlns:dc="http://purl.org/dc/elements/1.1/">
<metadata>
<rdf:RDF>
<cc:Work rdf:about="">
<dc:format>image/svg+xml</dc:format>
<dc:type rdf:resource="http://purl.org/dc/dcmitype/StillImage"/>
</cc:Work>
</rdf:RDF>
</metadata>
<defs>
<linearGradient y2="214.7789" gradientUnits="userSpaceOnUse" x2="13.52223" y1="209.9819" x1="5.644915">
<stop stop-color="#d7d7d7" offset="0"/>
<stop offset="1"/>
</linearGradient>
</defs>
<g transform="matrix(-1 0 0 1 525.14089 -360.04858)">
<path d="m517.5 360.9977 2 0.002v9.0023l3-0.002" stroke-opacity=".8306011" stroke="#3c3c3c" stroke-linecap="round" stroke-width="1.0000002px" fill="none"/>
<g transform="matrix(.689556 0 0 .507098 506.5653 256.2643)" stroke="#000">
<rect stroke-linejoin="round" height="2.011886" width="4.508889" stroke-miterlimit="0" y="205.5087" x="11.50698" stroke-width="1.691099" fill="none"/>
</g>
<g transform="matrix(.689556 0 0 .507098 513.514 265.2668)" stroke="#000">
<rect stroke-linejoin="round" height="2.011886" width="4.508889" stroke-miterlimit="0" y="205.5087" x="11.50698" stroke-width="1.691099" fill="none"/>
</g>
</g>
</svg>
