<?xml version="1.0" encoding="UTF-8" standalone="no"?>
<svg xmlns:rdf="http://www.w3.org/1999/02/22-rdf-syntax-ns#" xmlns="http://www.w3.org/2000/svg" version="1.1" xmlns:cc="http://creativecommons.org/ns#" xmlns:xlink="http://www.w3.org/1999/xlink" viewBox="0 0 15.994798 16" xmlns:dc="http://purl.org/dc/elements/1.1/">
<metadata>
<rdf:RDF>
<cc:Work rdf:about="">
<dc:format>image/svg+xml</dc:format>
<dc:type rdf:resource="http://purl.org/dc/dcmitype/StillImage"/>
</cc:Work>
</rdf:RDF>
</metadata>
<defs>
<linearGradient id="f" y2="218.8156" xlink:href="#a" gradientUnits="userSpaceOnUse" x2="20.98923" gradientTransform="matrix(1.165669,0,0,2.325584,313.3867,-379.6724)" y1="215.0097" x1="17.48326"/>
<linearGradient id="c" y2="126.5225" gradientUnits="userSpaceOnUse" x2="338.0838" gradientTransform="rotate(-45,340.6656,118.1192)" y1="117.2489" x1="337.1166">
<stop stop-color="#fff" offset="0"/>
<stop stop-color="#aaa" offset="1"/>
</linearGradient>
<linearGradient id="a">
<stop stop-color="#ffbf00" offset="0"/>
<stop stop-color="#fff" offset="1"/>
</linearGradient>
<linearGradient id="g" y2="218.3974" xlink:href="#b" gradientUnits="userSpaceOnUse" x2="22.04275" gradientTransform="matrix(1.124777,0,0,1.798127,314.1438,-265.2068)" y1="214.0084" x1="15.15684"/>
<linearGradient id="d" y2="124.1941" xlink:href="#b" gradientUnits="userSpaceOnUse" x2="336.8484" gradientTransform="translate(7)" y1="121.9937" x1="332.8779"/>
<linearGradient id="b">
<stop stop-color="#5a5a5a" offset="0"/>
<stop offset="1"/>
</linearGradient>
<linearGradient id="e" y2="214.3821" xlink:href="#a" gradientUnits="userSpaceOnUse" x2="16.10928" gradientTransform="matrix(.87731 0 0 1.393407 318.7061 -177.3687)" y1="219.6944" x1="19.08596"/>
</defs>
<g transform="translate(-329.9642,-114.9992)">
<rect stroke-linejoin="round" style="color:#000000" height="8.992967" width="8.996735" stroke="url(#g)" stroke-miterlimit="0" y="120.5063" x="330.4642" stroke-width="1.0000006" fill="none"/>
<rect stroke-linejoin="round" style="color:#000000" fill-rule="evenodd" height="6.985559" width="6.994853" stroke="url(#e)" stroke-linecap="round" stroke-miterlimit="0" y="121.5137" x="331.4641" stroke-width="1.0000006" fill="url(#f)"/>
<path stroke-linejoin="round" d="m343.459 125.4992c1.5 0 2 1 2 2v2.5l-1 0.5h-1v-2h-4v2h-1l-1-0.5v-2.5c0-1 0.5-2 2-2v-5c-1.5 0-2-1-2-2v-2.5l1-0.5h1v2h4v-2h1l1 0.5v2.5c0 0.5-0.5 2-2 2v5z" fill-rule="evenodd" stroke="url(#d)" stroke-linecap="round" stroke-width="1.0000004px" fill="url(#c)"/>
<path d="m340.459 120.4992v4" stroke="#fff" stroke-linecap="round" stroke-width="1px" fill="none"/>
<path d="m342.959 120.4992h-1" fill-rule="evenodd" fill-opacity=".75" stroke="#646464" stroke-width="1px" fill="#646464"/>
<path d="m342.959 120.4992h-1" fill-rule="evenodd" fill-opacity=".75" transform="translate(0 5)" stroke="#646464" stroke-width="1px" fill="#646464"/>
<path d="m340.459 126.4992c-2 0-2 0-2 3" stroke="#fff" stroke-linecap="round" stroke-width="1px" fill="none"/>
</g>
</svg>
