<?xml version="1.0" encoding="UTF-8" standalone="no"?>
<svg xmlns:rdf="http://www.w3.org/1999/02/22-rdf-syntax-ns#" xmlns="http://www.w3.org/2000/svg" version="1.1" xmlns:cc="http://creativecommons.org/ns#" viewBox="0 0 30 24" xmlns:dc="http://purl.org/dc/elements/1.1/">
<metadata>
<rdf:RDF>
<cc:Work rdf:about="">
<dc:format>image/svg+xml</dc:format>
<dc:type rdf:resource="http://purl.org/dc/dcmitype/StillImage"/>
</cc:Work>
</rdf:RDF>
</metadata>
<path fill="none" stroke="#000" d="m22.5 10.5-8 1-2 10-9-2.1-1-12 8-5 4 9m13-8-5 7 4 9"/>
<g stroke="#00f" fill="#8ab3de">
<circle cx="10.5" cy="2.5" r="2"/>
<circle cx="2.5" cy="7.5" r="2"/>
<circle cx="3.5" cy="19.5" r="2"/>
<circle cx="12.5" cy="21.5" r="2"/>
<circle cx="14.5" cy="11.5" r="2"/>
<circle cx="22.5" cy="10.5" r="2"/>
<circle cx="27.5" cy="3.5" r="2"/>
<circle cx="26.5" cy="19.5" r="2"/>
</g>
</svg>
