<?xml version="1.0" encoding="UTF-8" standalone="no"?>
<svg xmlns:rdf="http://www.w3.org/1999/02/22-rdf-syntax-ns#" xmlns="http://www.w3.org/2000/svg" version="1.1" xmlns:cc="http://creativecommons.org/ns#" xmlns:xlink="http://www.w3.org/1999/xlink" viewBox="0 0 15.721484 15.570886" xmlns:dc="http://purl.org/dc/elements/1.1/">
<metadata>
<rdf:RDF>
<cc:Work rdf:about="">
<dc:format>image/svg+xml</dc:format>
<dc:type rdf:resource="http://purl.org/dc/dcmitype/StillImage"/>
</cc:Work>
</rdf:RDF>
</metadata>
<defs>
<linearGradient id="b" y2="180.2034" xlink:href="#a" gradientUnits="userSpaceOnUse" x2="454.0355" gradientTransform="matrix(.9975701 0 0 1.002994 1.42143 -.2844345)" y1="190.8572" x1="464.5001"/>
<linearGradient id="d" y2="183.3223" gradientUnits="userSpaceOnUse" x2="117.8272" gradientTransform="matrix(1.004126 0 0 .991974 339.8742 1.209495)" y1="174.4991" x1="110">
<stop stop-color="#5a5a5a" offset="0"/>
<stop offset="1"/>
</linearGradient>
<linearGradient id="c" y2="178.0064" xlink:href="#a" gradientUnits="userSpaceOnUse" x2="452.4859" gradientTransform="matrix(.9975701 0 0 1.002994 1.42143 -.2844345)" y1="187.2543" x1="456.7332"/>
<linearGradient id="a">
<stop stop-color="#ffeb74" offset="0"/>
<stop stop-color="#fff" offset="1"/>
</linearGradient>
</defs>
<g stroke-linejoin="round" stroke-linecap="round" stroke-miterlimit="0" transform="translate(-450.32691 -175.27501)">
<path style="color:#000000" d="m462.0737 189.3155h-7.7714l-2.2203-7.5496 6.106-4.8532 6.1061 4.8532-2.2204 7.5496z" fill-rule="evenodd" stroke="url(#b)" stroke-width="1.0000002" fill="url(#c)"/>
<path style="color:#000000" d="m462.8716 190.3459h-9.368l-2.6767-8.8692 7.3607-5.7017 7.3608 5.7017-2.6767 8.8692z" stroke="url(#d)" stroke-width=".9999991" fill="none"/>
</g>
</svg>
