<?xml version="1.0" encoding="UTF-8" standalone="no"?>
<svg xmlns:rdf="http://www.w3.org/1999/02/22-rdf-syntax-ns#" xmlns="http://www.w3.org/2000/svg" version="1.1" xmlns:cc="http://creativecommons.org/ns#" xmlns:xlink="http://www.w3.org/1999/xlink" viewBox="0 0 24 24.887668" xmlns:dc="http://purl.org/dc/elements/1.1/">
<metadata>
<rdf:RDF>
<cc:Work rdf:about="">
<dc:format>image/svg+xml</dc:format>
<dc:type rdf:resource="http://purl.org/dc/dcmitype/StillImage"/>
</cc:Work>
</rdf:RDF>
</metadata>
<defs>
<linearGradient id="a" y2="481.6766" gradientUnits="userSpaceOnUse" x2="373.9961" gradientTransform="matrix(.7598957 0 0 .7598957 329.9618 -256.886)" y1="508.1568" x1="348.706">
<stop stop-color="#8686bf" offset="0"/>
<stop stop-color="#9191b6" stop-opacity="0" offset="1"/>
</linearGradient>
<linearGradient id="c" y2="509.0494" gradientUnits="userSpaceOnUse" x2="354.9541" gradientTransform="matrix(.7598957 0 0 .7598957 329.9618 -256.886)" y1="500.7186" x1="368.343">
<stop stop-color="#d7d7ff" offset="0"/>
<stop stop-color="#d7d7ff" stop-opacity="0" offset="1"/>
</linearGradient>
<linearGradient id="b" y2="532.951" gradientUnits="userSpaceOnUse" x2="348.706" gradientTransform="matrix(.7598957 0 0 .7598957 329.9618 -256.886)" y1="510.1404" x1="359.7146">
<stop stop-color="#393986" offset="0"/>
<stop stop-color="#53536c" stop-opacity="0" offset="1"/>
</linearGradient>
</defs>
<g transform="translate(-590,-114.41557)">
<path stroke-linejoin="round" d="m604.0245 114.9402-11.8372 4.5906-0.2295 13.0505 8.886 6.1973 11.3127-3.607 0.2294-12.5586-8.3614-7.6728z" fill-rule="evenodd" stroke="#000" stroke-width="1.0492821px" fill="#fff"/>
<rect style="color:#000000" height="24" width="24" y="115" x="590" stroke-width="1.0000001" fill="none"/>
<path fill-rule="evenodd" fill="url(#a)" d="m592.431 132.3014 11.2755-3.9307 0.2248-12.8797-11.2836 4.3966-0.2167 12.4138z"/>
<path fill-rule="evenodd" fill="url(#b)" d="m592.431 132.3014 11.2755-3.9307 7.9756 6.4087-10.7756 3.4467-8.4755-5.9247z"/>
<path fill-rule="evenodd" fill="url(#c)" d="m603.7065 128.3707 7.9756 6.4087 0.2089-11.971-7.9597-7.3174-0.2248 12.8797z"/>
<path opacity=".5" stroke-linejoin="round" d="m603.8375 116.1429-10.6428 4.1273-0.2063 11.7338 7.9893 5.5718 10.1713-3.2428 0.2064-11.2914-7.5179-6.8987z" stroke="#fff" stroke-width="1.0657545" fill="none"/>
</g>
</svg>
