<?xml version="1.0" encoding="UTF-8" standalone="no"?>
<svg xmlns:rdf="http://www.w3.org/1999/02/22-rdf-syntax-ns#" xmlns="http://www.w3.org/2000/svg" version="1.1" xmlns:cc="http://creativecommons.org/ns#" xmlns:xlink="http://www.w3.org/1999/xlink" viewBox="0 0 16 16" xmlns:dc="http://purl.org/dc/elements/1.1/">
<metadata>
<rdf:RDF>
<cc:Work rdf:about="">
<dc:format>image/svg+xml</dc:format>
<dc:type rdf:resource="http://purl.org/dc/dcmitype/StillImage"/>
</cc:Work>
</rdf:RDF>
</metadata>
<defs>
<linearGradient id="a">
<stop stop-color="#ffbf00" offset="0"/>
<stop stop-color="#fff" offset="1"/>
</linearGradient>
<linearGradient id="d" y2="13" xlink:href="#a" gradientUnits="userSpaceOnUse" x2="8" y1="7" x1="6"/>
<linearGradient id="c" y2="7" xlink:href="#a" gradientUnits="userSpaceOnUse" x2="6" y1="13" x1="8"/>
<linearGradient id="b">
<stop stop-color="#fff" offset="0"/>
<stop stop-color="#98b6d3" offset="1"/>
</linearGradient>
<linearGradient id="e" y2="9" xlink:href="#b" gradientUnits="userSpaceOnUse" x2="12" y1="4" x1="7"/>
<linearGradient id="f" y2="4" xlink:href="#b" gradientUnits="userSpaceOnUse" x2="7" y1="9" x1="12"/>
</defs>
<rect stroke-linejoin="round" height="7" width="9" stroke="#222" y="6.5" x="2.5" fill="none"/>
<rect height="5" width="7" stroke="url(#c)" y="7.5" x="3.5" fill="url(#d)"/>
<circle stroke="#222" cy="6.5" cx="9.5" r="4" fill="none"/>
<circle stroke="url(#e)" cy="6.5" cx="9.5" r="3" fill="url(#f)"/>
<path d="m0.5 0.5h15v15h-15z" stroke-dashoffset=".5" stroke="#000" stroke-dasharray="2 1" fill="none"/>
</svg>
