<?xml version="1.0" encoding="UTF-8" standalone="no"?>
<svg xmlns:rdf="http://www.w3.org/1999/02/22-rdf-syntax-ns#" xmlns="http://www.w3.org/2000/svg" version="1.0" xmlns:cc="http://creativecommons.org/ns#" viewBox="0 0 96 96" xmlns:dc="http://purl.org/dc/elements/1.1/">
<defs>
<filter id="a">
<feTurbulence numOctaves="2" type="turbulence" baseFrequency="0.038999999999999986"/>
</filter>
</defs>
<metadata>
<rdf:RDF>
<cc:Work rdf:about="">
<dc:format>image/svg+xml</dc:format>
<dc:type rdf:resource="http://purl.org/dc/dcmitype/StillImage"/>
<dc:title>feTurbulence example</dc:title>
<dc:date>2007-07-03</dc:date>
<dc:creator>
<cc:Agent>
<dc:title>Felipe Corrêa da Silva Sanches</dc:title>
</cc:Agent>
</dc:creator>
<dc:rights>
<cc:Agent>
<dc:title>Felipe Corrêa da Silva Sanches</dc:title>
</cc:Agent>
</dc:rights>
<dc:publisher>
<cc:Agent>
<dc:title>Felipe Corrêa da Silva Sanches</dc:title>
</cc:Agent>
</dc:publisher>
<dc:identifier/>
<dc:source/>
<dc:relation/>
<dc:language/>
<dc:subject>
<rdf:Bag>
<rdf:li>feTurbulence example</rdf:li>
</rdf:Bag>
</dc:subject>
<dc:coverage/>
<dc:description>this is an image originally intended to be used in Inkscape</dc:description>
<dc:contributor>
<cc:Agent>
<dc:title/>
</cc:Agent>
</dc:contributor>
<cc:license rdf:resource="http://creativecommons.org/licenses/by-sa/3.0/"/>
</cc:Work>
<cc:License rdf:about="http://creativecommons.org/licenses/by-sa/3.0/">
<cc:permits rdf:resource="http://creativecommons.org/ns#Reproduction"/>
<cc:permits rdf:resource="http://creativecommons.org/ns#Distribution"/>
<cc:requires rdf:resource="http://creativecommons.org/ns#Notice"/>
<cc:requires rdf:resource="http://creativecommons.org/ns#Attribution"/>
<cc:permits rdf:resource="http://creativecommons.org/ns#DerivativeWorks"/>
<cc:requires rdf:resource="http://creativecommons.org/ns#ShareAlike"/>
</cc:License>
</rdf:RDF>
</metadata>
<g transform="translate(-155.36416,-264.88732)">
<g stroke-linejoin="round" fill-rule="evenodd" transform="matrix(1.011524 0 0 1.0016426 -1.9767386 .2882103)" stroke="#000" stroke-linecap="round">
<rect opacity=".37700536" stroke-dasharray="5.87539178,5.87539178" fill-opacity=".12765958" height="86.311569" width="85.633781" y="269.15067" x="160.40488" stroke-width="2.9376959"/>
<rect stroke-dasharray="2.67905219, 2.67905219" transform="matrix(.8363366 0 0 .835057 32.895129 51.491446)" height="82.853432" filter="url(#a)" width="82.113678" y="271.07193" x="162.50165" stroke-width="1.3395261"/>
</g>
</g>
</svg>
