<?xml version="1.0" encoding="UTF-8" standalone="no"?>
<svg xmlns:rdf="http://www.w3.org/1999/02/22-rdf-syntax-ns#" xmlns="http://www.w3.org/2000/svg" version="1.1" xmlns:cc="http://creativecommons.org/ns#" xmlns:xlink="http://www.w3.org/1999/xlink" viewBox="0 0 15.016734 15.125054" xmlns:dc="http://purl.org/dc/elements/1.1/">
<metadata>
<rdf:RDF>
<cc:Work rdf:about="">
<dc:format>image/svg+xml</dc:format>
<dc:type rdf:resource="http://purl.org/dc/dcmitype/StillImage"/>
</cc:Work>
</rdf:RDF>
</metadata>
<defs>
<radialGradient id="a" cx="375.0941" gradientUnits="userSpaceOnUse" cy="137.9821" r="1.111868">
<stop offset="0"/>
<stop stop-opacity="0" offset="1"/>
</radialGradient>
</defs>
<g stroke-width=".2773579" transform="translate(-372.39474,-136.97346)">
<circle style="color:#000000" transform="matrix(1.20571,0,0,1.20571,-78.25832,-27.88514)" stroke="#fff" cy="137.9821" cx="375.0941" r="1.111868"/>
<circle style="color:#000000" transform="matrix(1.188922,0,0,1.188922,-63.09951,-25.56857)" stroke="#fff" cy="137.9821" cx="375.0941" r="1.111868"/>
<circle style="color:#000000" transform="matrix(1.180543,0,0,1.180543,-57.00309,-21.38516)" stroke="#fff" cy="137.9821" cx="375.0941" r="1.111868"/>
<circle style="color:#000000" transform="matrix(1.088184,0,0,1.088184,-22.35986,-5.61394)" stroke="#fff" cy="137.9821" cx="375.0941" r="1.111868"/>
<circle style="color:#000000" transform="matrix(1.188915,0,0,1.188915,-69.00487,-25.56775)" stroke="#fff" cy="137.9821" cx="375.0941" r="1.111868"/>
<circle style="color:#000000" transform="matrix(1.20571,0,0,1.20571,-66.44314,-27.88514)" stroke="#fff" cy="137.9821" cx="375.0941" r="1.111868"/>
<circle style="color:#000000" transform="matrix(1.093412,0,0,1.093412,-36.13602,-6.3353)" stroke="#fff" cy="137.9821" cx="375.0941" r="1.111868"/>
<circle style="color:#000000" transform="matrix(1.184974,0,0,1.184974,-70.48049,-15.94187)" stroke="#fff" cy="137.9821" cx="375.0941" r="1.111868"/>
<circle style="color:#000000" transform="matrix(1.111722,0,0,1.111722,-37.0964,-14.9165)" stroke="#fff" cy="137.9821" cx="375.0941" r="1.111868"/>
<circle style="color:#000000" transform="matrix(1.181829,0,0,1.181829,-69.30058,-21.56258)" stroke="#fff" cy="137.9821" cx="375.0941" r="1.111868"/>
<circle style="color:#000000" transform="matrix(1.485788,0,0,1.485788,-180.3604,-63.50353)" cy="137.9821" cx="375.0941" r="1.111868" fill="url(#a)"/>
<circle style="color:#000000" transform="matrix(1.485788,0,0,1.485788,-180.3597,-57.44874)" cy="137.9821" cx="375.0941" r="1.111868" fill="url(#a)"/>
<circle style="color:#000000" transform="matrix(1.485788,0,0,1.485788,-177.4064,-63.50356)" cy="137.9821" cx="375.0941" r="1.111868" fill="url(#a)"/>
<circle style="color:#000000" transform="matrix(1.485788,0,0,1.485788,-174.4526,-63.50354)" cy="137.9821" cx="375.0941" r="1.111868" fill="url(#a)"/>
<circle style="color:#000000" transform="matrix(1.485788,0,0,1.485788,-180.3605,-60.47619)" cy="137.9821" cx="375.0941" r="1.111868" fill="url(#a)"/>
<circle style="color:#000000" transform="matrix(1.4858,0,0,1.4858,-177.4101,-57.45014)" cy="137.9821" cx="375.0941" r="1.111868" fill="url(#a)"/>
<circle style="color:#000000" transform="matrix(1.485788,0,0,1.485788,-174.4524,-60.47613)" cy="137.9821" cx="375.0941" r="1.111868" fill="url(#a)"/>
<circle style="color:#000000" transform="matrix(1.492675,0,0,1.492675,-177.0357,-58.39903)" cy="137.9821" cx="375.0941" r="1.111868" fill="url(#a)"/>
<circle style="color:#000000" transform="matrix(1.191739,0,0,1.191739,-64.1566,-13.84799)" stroke="#fff" cy="137.9821" cx="375.0941" r="1.111868"/>
<circle style="color:#000000" transform="matrix(1.181973,0,0,1.181973,-57.53942,-15.52772)" stroke="#fff" cy="137.9821" cx="375.0941" r="1.111868"/>
<circle style="color:#000000" transform="matrix(1.20571,0,0,1.20571,-78.25832,-15.77568)" stroke="#fff" cy="137.9821" cx="375.0941" r="1.111868"/>
<circle style="color:#000000" transform="matrix(1.193386,0,0,1.193386,-70.68201,-14.07527)" stroke="#fff" cy="137.9821" cx="375.0941" r="1.111868"/>
<circle style="color:#000000" transform="matrix(1.121575,0,0,1.121575,-40.79199,-4.166495)" stroke="#fff" cy="137.9821" cx="375.0941" r="1.111868"/>
<circle style="color:#000000" transform="matrix(1.20571,0,0,1.20571,-66.44314,-15.77568)" stroke="#fff" cy="137.9821" cx="375.0941" r="1.111868"/>
<circle style="color:#000000" transform="matrix(6.75293,0,0,6.75293,-2153.081,-787.2478)" cy="137.9821" cx="375.0941" r="1.111868" fill="url(#a)"/>
</g>
</svg>
