<?xml version="1.0" encoding="UTF-8" standalone="no"?>
<svg xmlns:rdf="http://www.w3.org/1999/02/22-rdf-syntax-ns#" xmlns="http://www.w3.org/2000/svg" version="1.1" xmlns:cc="http://creativecommons.org/ns#" viewBox="0 0 16.0937 16" xmlns:dc="http://purl.org/dc/elements/1.1/">
<metadata>
<rdf:RDF>
<cc:Work rdf:about="">
<dc:format>image/svg+xml</dc:format>
<dc:type rdf:resource="http://purl.org/dc/dcmitype/StillImage"/>
</cc:Work>
</rdf:RDF>
</metadata>
<g fill="#8ea7c4" transform="translate(-314.91614,-209)">
<path stroke-linejoin="round" style="color:#000000" d="m225.0625 150.5c-2.8791 0-5.1577 2.2389-5.4063 5.0625h-4.1562v9.9375h10.0937v-4.0313c2.7853-0.2784 5-2.5707 5-5.4375 0-3.0539-2.4867-5.5312-5.5312-5.5312z" fill-rule="evenodd" fill-opacity=".7019608" transform="translate(99.91614,59)" stroke="#000" stroke-miterlimit="0" stroke-width="1.0000002" fill="#99b7d6"/>
</g>
</svg>
