<?xml version="1.0" encoding="UTF-8" standalone="no"?>
<svg xmlns:rdf="http://www.w3.org/1999/02/22-rdf-syntax-ns#" xmlns="http://www.w3.org/2000/svg" version="1.1" xmlns:cc="http://creativecommons.org/ns#" viewBox="0 0 16 16" xmlns:dc="http://purl.org/dc/elements/1.1/">
<metadata>
<rdf:RDF>
<cc:Work rdf:about="">
<dc:format>image/svg+xml</dc:format>
<dc:type rdf:resource="http://purl.org/dc/dcmitype/StillImage"/>
</cc:Work>
</rdf:RDF>
</metadata>
<g transform="translate(-344.959,-149.961)">
<path style="color:#000000" d="m290.5 170.5v-8c4 0 8 4 8 8h-8z" fill-opacity=".59" fill-rule="evenodd" transform="translate(54.959 -5.039)" stroke-width="1px" fill="#99b6d4"/>
<path d="m290.5 155.5v7c4 0 8 4 8 8h7c0-8-7-15-15-15z" fill-rule="evenodd" transform="translate(54.959 -5.039)" fill="#99b7d4"/>
<path d="m290.5 155.5c8 0 15 7 15 15" transform="translate(54.959 -5.039)" stroke="#000" stroke-linecap="round" stroke-width="1px" fill="none"/>
<rect stroke-linejoin="round" style="color:#000000" fill-rule="evenodd" fill-opacity=".3921569" transform="translate(393.9721 -22.02453)" height="3.023564" width="3.009614" stroke="#00f" stroke-linecap="round" stroke-miterlimit="0" y="-39.5126" x="-178.495" stroke-width="1.0000025" fill="#6464ff"/>
<path d="m290.5 162.5c4 0 8 4 8 8" transform="translate(54.959 -5.039)" stroke="#000" stroke-linecap="round" fill="none"/>
</g>
</svg>
