<?xml version="1.0" encoding="UTF-8" standalone="no"?>
<svg xmlns:rdf="http://www.w3.org/1999/02/22-rdf-syntax-ns#" xmlns="http://www.w3.org/2000/svg" version="1.1" xmlns:cc="http://creativecommons.org/ns#" xmlns:xlink="http://www.w3.org/1999/xlink" viewBox="0 0 16.000015 16" xmlns:dc="http://purl.org/dc/elements/1.1/">
<metadata>
<rdf:RDF>
<cc:Work rdf:about="">
<dc:format>image/svg+xml</dc:format>
<dc:type rdf:resource="http://purl.org/dc/dcmitype/StillImage"/>
</cc:Work>
</rdf:RDF>
</metadata>
<defs>
<linearGradient id="a" y2="83.39406" gradientUnits="userSpaceOnUse" x2="264.6582" y1="92.579" x1="255.513">
<stop offset="0"/>
<stop stop-color="#7f7f7f" offset=".35076979"/>
<stop stop-color="#bfbfbf" offset=".59668732"/>
<stop stop-color="#dfdfdf" offset=".78382427"/>
<stop stop-color="#fff" offset="1"/>
</linearGradient>
</defs>
<g transform="translate(-253.43819,-81.171336)">
<g transform="translate(4.748695,-1.046956)">
<rect height="8" width="8" y="82.21829" x="248.6895" fill="#f00"/>
<rect height="8" width="8" y="90.21829" x="248.6895" fill="#0f0"/>
<rect height="8" width="8" y="90.21829" x="256.6895" fill="#ff0"/>
<rect height="8" width="8" y="82.21829" x="256.6895" fill="#00f"/>
</g>
<g transform="translate(2.35278 .184832)">
<path d="m256.013 84.079s4.1649-0.93509 6.5 1.4 1.5 6.6 1.5 6.6" stroke="url(#a)" stroke-width="1px" fill="none"/>
<rect height="1" width="1" y="90.57895" x="255.5127"/>
<rect height="1" width="1" y="83.57895" x="255.5127" fill="#ccc"/>
<rect height="1" width="1" y="89.57895" x="254.5127" fill="#4d4d4d"/>
<rect height="1" width="1" y="88.57895" x="254.5127" fill="#4d4d4d"/>
<rect height="1" width="1" y="87.57895" x="253.5127" fill="#808080"/>
<rect height="1" width="1" y="86.57895" x="253.5127" fill="#808080"/>
<rect height="1" width="1" y="85.57895" x="254.5127" fill="#b3b3b3"/>
<rect height="1" width="1" y="84.57895" x="254.5127" fill="#b3b3b3"/>
<rect height="1" width="1" y="91.57895" x="256.5127"/>
<rect height="1" width="1" y="92.57895" x="257.5127" fill="#4d4d4d"/>
<rect height="1" width="1" y="92.57895" x="258.5127" fill="#4d4d4d"/>
<rect height="1" width="1" y="93.57895" x="259.5127" fill="#808080"/>
<rect height="1" width="1" y="93.57895" x="260.5127" fill="#808080"/>
<rect height="1" width="1" y="92.57895" x="261.5127" fill="#b3b3b3"/>
<rect height="1" width="1" y="92.57895" x="262.5127" fill="#b3b3b3"/>
<rect height="1" width="1" y="91.57895" x="263.5127" fill="#ccc"/>
</g>
</g>
</svg>
