<?xml version="1.0" encoding="UTF-8" standalone="no"?>
<svg xmlns:rdf="http://www.w3.org/1999/02/22-rdf-syntax-ns#" xmlns="http://www.w3.org/2000/svg" version="1.1" xmlns:cc="http://creativecommons.org/ns#" viewBox="0 0 16 16.00057" xmlns:dc="http://purl.org/dc/elements/1.1/">
<metadata>
<rdf:RDF>
<cc:Work rdf:about="">
<dc:format>image/svg+xml</dc:format>
<dc:type rdf:resource="http://purl.org/dc/dcmitype/StillImage"/>
</cc:Work>
</rdf:RDF>
</metadata>
<g transform="translate(-692,-30.00057)">
<rect style="color:#000000" height="16" width="16" y="30.00057" x="692" stroke-width=".1" fill="none"/>
<rect style="color:#000000" height="16" width="16" y="30.00114" x="692" stroke-width=".1" fill="none"/>
<path stroke-linejoin="round" style="color:#000000" d="m693 38s0-5 7-5c-4 5-2.25 8 0.5 9.75s6.5 2.25 6.5 2.25" stroke="#646464" stroke-linecap="round" stroke-miterlimit="0" stroke-width="1.0000002" fill="none"/>
<rect stroke-linejoin="round" style="color:#000000" fill-rule="evenodd" fill-opacity=".3921569" transform="rotate(-45)" height="3.621212" width="3.584063" stroke="#00f" stroke-linecap="round" stroke-miterlimit="0" y="516.5415" x="469.8239" stroke-width=".9051017" fill="#6464ff"/>
</g>
</svg>
