<?xml version="1.0" encoding="UTF-8" standalone="no"?>
<svg xmlns:rdf="http://www.w3.org/1999/02/22-rdf-syntax-ns#" xmlns="http://www.w3.org/2000/svg" version="1.1" xmlns:cc="http://creativecommons.org/ns#" xmlns:xlink="http://www.w3.org/1999/xlink" viewBox="0 0 28.030301 27.999999" xmlns:dc="http://purl.org/dc/elements/1.1/">
<metadata>
<rdf:RDF>
<cc:Work rdf:about="">
<dc:format>image/svg+xml</dc:format>
<dc:type rdf:resource="http://purl.org/dc/dcmitype/StillImage"/>
</cc:Work>
</rdf:RDF>
</metadata>
<defs>
<linearGradient id="i" y2="351.8581" xlink:href="#a" gradientUnits="userSpaceOnUse" x2="521.2233" y1="354.5319" x1="519.4526"/>
<linearGradient id="a">
<stop stop-color="#5a5a5a" offset="0"/>
<stop offset="1"/>
</linearGradient>
<linearGradient id="f" y2="350.407" xlink:href="#b" gradientUnits="userSpaceOnUse" x2="532.363" y1="347.4531" x1="529.5001"/>
<linearGradient id="h" y2="346.7762" xlink:href="#a" gradientUnits="userSpaceOnUse" x2="523.4155" y1="349.3102" x1="515.9623"/>
<linearGradient id="d" y2="351.125" xlink:href="#a" gradientUnits="userSpaceOnUse" x2="511.4375" y1="347.1808" x1="508.1888"/>
<linearGradient id="e" y2="350.5838" xlink:href="#b" gradientUnits="userSpaceOnUse" x2="538.064" y1="346.8714" x1="534.5285"/>
<linearGradient id="g" y2="351.8581" xlink:href="#a" gradientUnits="userSpaceOnUse" x2="521.2233" gradientTransform="rotate(15,511.8463,316.8629)" y1="354.5319" x1="519.4526"/>
<linearGradient id="c" y2="352.1231" xlink:href="#a" gradientUnits="userSpaceOnUse" x2="518.6993" y1="346.5179" x1="515.2157"/>
<linearGradient id="b">
<stop stop-color="#a2d3ff" offset="0"/>
<stop stop-color="#004c91" offset="1"/>
</linearGradient>
</defs>
<g transform="matrix(.942859 0 0 .942859 -1235.3923 -48.07579)">
<g transform="matrix(.992487 0 0 .989897 10.11498 1.557598)">
<rect height="30" width="29.92172" y="49.93628" x="1310" fill="none"/>
</g>
<g transform="matrix(1.060604,0,0,1.060604,769.377,-305.3736)" stroke="#000" stroke-width=".5">
<path style="color:#000000" fill="url(#d)" d="m510 347.3125v1.6875c0.2685 0.074 0.5104 0.2153 0.7187 0.4375 0.3125 0.3281 0.4532 0.8021 0.4688 1.4375h-1.1875v1.3437h3.375c0.031-1.6822-0.3177-2.9062-1.0313-3.7187-0.5988-0.6862-1.3781-1.0772-2.3437-1.1875zm1.0625 5.7812c-0.1198 0.4167-0.2969 0.7188-0.5313 0.9063-0.1565 0.1253-0.3258 0.2084-0.5312 0.25v1.6562c0.7568-0.048 1.4126-0.2317 1.9375-0.5937 0.6094-0.4219 1.0312-1.0417 1.3125-1.8438l-2.1875-0.375z"/>
<path style="color:#000000" fill="url(#c)" d="m522.7891 355.75h-2.0391v-1.2188c-0.3386 0.474-0.7396 0.8282-1.2031 1.0625-0.4584 0.2292-0.9219 0.3438-1.3907 0.3438-0.9531 0-1.7708-0.3828-2.4531-1.1484-0.6771-0.7709-1.0156-1.8438-1.0156-3.2188 0-1.4062 0.3307-2.4739 0.9922-3.2031 0.6614-0.7344 1.4974-1.1016 2.5078-1.1016 0.9271 0 1.7292 0.3854 2.4062 1.1563v-4.125h2.1954v11.4531m-5.8594-4.3281c0 0.8854 0.1224 1.526 0.3672 1.9218 0.3541 0.573 0.8489 0.8594 1.4843 0.8594 0.5052 0 0.9349-0.2135 1.2891-0.6406 0.3542-0.4323 0.5313-1.0755 0.5313-1.9297 0-0.9531-0.1719-1.638-0.5157-2.0547-0.3437-0.4218-0.7838-0.6328-1.3203-0.6328-0.5208 0-0.9583 0.2084-1.3125 0.625-0.3489 0.4115-0.5234 1.0287-0.5234 1.8516"/>
<path style="color:#000000" fill="url(#f)" d="m533.2031 347.4531v1.75h-1.5v3.3438c0 0.6771 0.013 1.0729 0.039 1.1875 0.031 0.1093 0.096 0.2005 0.1953 0.2734 0.1042 0.073 0.2292 0.1094 0.375 0.1094 0.2031 0 0.4974-0.07 0.8828-0.211l0.1875 1.7032c-0.5104 0.2187-1.0885 0.3281-1.7343 0.3281-0.3959 0-0.7526-0.065-1.0704-0.1953-0.3177-0.1354-0.552-0.3073-0.7031-0.5156-0.1458-0.2136-0.2474-0.5-0.3047-0.8594-0.047-0.2552-0.07-0.7708-0.07-1.5469v-3.6172h-1.0078v-1.75h1.0078v-1.6484l2.2032-1.2813v2.9297h1.5"/>
<path style="color:#000000" fill="url(#e)" d="m534.75 344.2812v11.4688h2.1875v-4.1563c0-0.6979 0.057-1.2395 0.1875-1.5937 0.1354-0.3594 0.3385-0.6042 0.625-0.7813 0.077-0.048 0.1448-0.09 0.2279-0.125v-1.4687c-0.3851 0.2058-0.714 0.4934-1.0404 0.875v-4.2188z"/>
<path style="color:#000000" d="m537.9836 347.3884c-0.2626 0.1113-0.5715 0.3803-0.7961 0.5803v-3.6875-0.25h-0.25-2.1875-0.25v0.25 11.4688 0.25h0.25 2.1875 0.25v-0.25-4.1563c0-0.6842 0.078-1.201 0.1875-1.5h-0.031c0.1195-0.3172 0.2875-0.5055 0.5312-0.6562 0.06-0.037 0.055-0.106 0.1334-0.1309m-3.0086-4.7754h1.6875v3.9688 0.6875l0.4375-0.5313c0.1921-0.2245 0.638-0.5655 0.846-0.7209v0.7812c-0.044 0.022-0.3031 0.257-0.346 0.2835-0.3292 0.2035-0.5675 0.5047-0.7188 0.9062h-0.031c-0.1504 0.4094-0.1875 0.976-0.1875 1.6875v3.9063h-1.6875v-10.9688z"/>
<path style="color:#000000" d="m509.9927 349.2942c0.2272 0.063 0.3601 0.1092 0.5385 0.2995v0.031c0.2036 0.2137 0.2632 0.583 0.3125 1h-0.8437v1.8437h3.375 0.25v-0.25c0.032-1.7191-0.3247-2.9993-1.0938-3.875-0.6385-0.7317-1.5164-1.1651-2.5331-1.2812zm2.1635-0.638c0.6193 0.7052 0.9252 1.8183 0.9375 3.3125h-3.0923v-0.8437h1.1861 0.25v-0.25c-0.016-0.6576-0.1755-1.207-0.5313-1.5938-0.01-0.01-0.025 0.01-0.031 0-0.1799-0.1865-0.6563-0.3916-0.8791-0.4835v-1.1765c0.8775 0.137 1.5383 0.4788 2.1603 1.035zm-1.2812 4.1563-0.062 0.2187c-0.1106 0.3847-0.2575 0.6373-0.4375 0.7813-0.1301 0.1041-0.2074 0.1594-0.3768 0.1865v2.1583c0.7896-0.017 1.5178-0.2313 2.0902-0.626 0.6591-0.4564 1.1124-1.131 1.4062-1.9688l0.094-0.2812-0.3125-0.062-2.1875-0.375-0.2187-0.031zm0.3125 0.5625 1.625 0.2812c-0.2595 0.5903-0.5614 1.1123-1.0313 1.4375-0.4028 0.2779-1.1988 0.4841-1.7798 0.5572v-1.1563c0.1572-0.057 0.5579-0.2045 0.6861-0.3071 0.2284-0.1827 0.3745-0.4901 0.5-0.8125z"/>
<path d="m537.7359 348.3968c-0.26 0.1703-0.5421 0.4041-0.8021 0.75" fill-opacity=".75" fill-rule="evenodd" stroke="#b2dafe" stroke-linecap="round" fill="#fff"/>
<path style="color:#000000" d="m515.1958 351.9239c0-1.4062 0.2202-2.5181 0.8817-3.2473 0.6614-0.7344 1.5416-0.9911 2.552-0.9027" stroke="url(#h)" stroke-linecap="round" fill="none"/>
<path style="color:#000000" d="m520.929 352.4257c0 0.7286-0.286 1.2427-0.7661 1.7266-0.3607 0.3635-0.8208 0.5355-1.3442 0.4897" stroke="url(#i)" stroke-linecap="round" fill="none"/>
<path style="color:#000000" d="m511.4152 353.5647c-0.2823 0.6881-0.5979 0.9388-1.1869 1.2819" stroke="url(#g)" stroke-linecap="round" fill="none"/>
</g>
<path d="m1333.3 63.71495h1.046" fill-rule="evenodd" stroke="#b2dafe" stroke-linecap="round" stroke-width=".7256771px" fill="#b2dafe"/>
<path d="m1330.49 63.76263 0.488-0.00096" fill-opacity=".75" fill-rule="evenodd" stroke="#b2dafe" stroke-linecap="round" stroke-width=".7256771px" fill="#fff"/>
</g>
</svg>
